第十組：社群媒體期末報告
…
##LDA

lda <- LDA(dtm, k = 2, control = list(seed = 2021))

topics_words <- tidy(lda, matrix = "beta") # 注意，在tidy function裡面要使用"beta"來取出Phi矩陣。
colnames(topics_words) <- c("topic", "term", "phi")
topics_words

## # A tibble: 23,010 x 3
##    topic term        phi
##    <int> <chr>     <dbl>
##  1     1 柯文哲 2.92e- 3
##  2     2 柯文哲 2.03e- 4
##  3     1 政府   8.80e- 3
##  4     2 政府   2.92e- 3
##  5     1 林瑋豐 2.69e- 3
##  6     2 林瑋豐 1.95e- 2
##  7     1 網軍   1.91e- 2
##  8     2 網軍   3.89e- 3
##  9     1 肥肥   5.59e-11
## 10     2 肥肥   1.00e- 3
## # ... with 23,000 more rows
…
g_topics <- tidy(the_lda, matrix="gamma") %>% # document topic gamma
                  group_by(document) %>%
                  top_n(1, wt=gamma)
g_topics

## # A tibble: 716 x 3
## # Groups:   document [716]
##    document                                                 topic gamma
##    <chr>                                                    <int> <dbl>
##  1 https://www.ptt.cc/bbs/Gossiping/M.1621687845.A.8D8.html     1 1.00 
##  2 https://www.ptt.cc/bbs/Gossiping/M.1621879761.A.AFA.html     1 1.00 
##  3 https://www.ptt.cc/bbs/Gossiping/M.1621873431.A.00C.html     1 0.999
##  4 https://www.ptt.cc/bbs/Gossiping/M.1621894862.A.D00.html     1 0.937
##  5 https://www.ptt.cc/bbs/Gossiping/M.1619885923.A.D43.html     1 0.999
##  6 https://www.ptt.cc/bbs/Gossiping/M.1621898446.A.733.html     1 1.00 
##  7 https://www.ptt.cc/bbs/Gossiping/M.1621577071.A.9A6.html     1 0.863
##  8 https://www.ptt.cc/bbs/Gossiping/M.1621215720.A.4A6.html     1 0.999
##  9 https://www.ptt.cc/bbs/Gossiping/M.1621563056.A.B32.html     1 1.00 
## 10 https://www.ptt.cc/bbs/Gossiping/M.1621848853.A.C92.html     1 0.999
## # ... with 706 more rows
…
posts = MetaData
#  帳號發文篇數
 post_count = posts %>%
   group_by(artPoster) %>%
   summarise(count = n()) %>%
   arrange(desc(count)) 
 post_count

## # A tibble: 553 x 2
##    artPoster    count
##    <chr>        <int>
##  1 CPer             6
##  2 HollisterCo      6
##  3 kons             6
##  4 aure0914         5
##  5 chirex           5
##  6 ae034            4
##  7 Behind4          4
##  8 Birthday5566     4
##  9 ClutchShot       4
## 10 ig49999          4
## # ... with 543 more rows

# 帳號回覆總數
 review_count = Reviews2 %>%
   group_by(cmtPoster) %>%
   summarise(count = n()) %>%
   arrange(desc(count)) 
 review_count

## # A tibble: 15,348 x 2
##    cmtPoster  count
##    <chr>      <int>
##  1 s9234032     338
##  2 trywish      195
##  3 leecliff     150
##  4 butten986    144
##  5 jma306       135
##  6 powderzhon   122
##  7 VOLK11       120
##  8 Annis812     115
##  9 TZUYIC       115
## 10 yehpi        115
## # ... with 15,338 more rows
…
##以日期篩選社群

#0524那天po文數最多

link <- posts_Reviews %>%
      group_by(cmtPoster, artUrl) %>% 
      filter(n()>3) %>% 
      filter(commentNum > 200) %>%
      filter(artCat=="Gossiping") %>% 
      filter(artDate == as.Date('2021-05-24')) %>%
      select(cmtPoster, artPoster, artUrl) %>% 
      unique()
link

## # A tibble: 647 x 3
## # Groups:   cmtPoster, artUrl [647]
##    cmtPoster   artPoster   artUrl                                               
##    <chr>       <chr>       <chr>                                                
##  1 TZUYIC      Beatrice322 https://www.ptt.cc/bbs/Gossiping/M.1621822128.A.930.~
##  2 newmp4      Beatrice322 https://www.ptt.cc/bbs/Gossiping/M.1621822128.A.930.~
##  3 neoa01      Beatrice322 https://www.ptt.cc/bbs/Gossiping/M.1621822128.A.930.~
##  4 tupacshkur  Beatrice322 https://www.ptt.cc/bbs/Gossiping/M.1621822128.A.930.~
##  5 jimmyso     Beatrice322 https://www.ptt.cc/bbs/Gossiping/M.1621822128.A.930.~
##  6 phoenixhong Beatrice322 https://www.ptt.cc/bbs/Gossiping/M.1621822128.A.930.~
##  7 kroutony    Beatrice322 https://www.ptt.cc/bbs/Gossiping/M.1621822128.A.930.~
##  8 mice2       Beatrice322 https://www.ptt.cc/bbs/Gossiping/M.1621822128.A.930.~
##  9 s9234032    borondawon  https://www.ptt.cc/bbs/Gossiping/M.1621833645.A.E50.~
## 10 amida959    borondawon  https://www.ptt.cc/bbs/Gossiping/M.1621833645.A.E50.~
## # ... with 637 more rows
…
link <- posts_Reviews %>%
      group_by(cmtPoster, artUrl) %>% 
      filter(n()>3) %>% 
      filter(commentNum > 200) %>%
      filter(artCat=="Gossiping") %>% #HatePolitics / Gossiping
      filter(artDate == as.Date('2021-05-24')) %>%
      select(cmtPoster, artPoster, artUrl, topic) %>% 
      unique()
link

## # A tibble: 647 x 4
## # Groups:   cmtPoster, artUrl [647]
##    cmtPoster   artPoster   artUrl                                          topic
##    <chr>       <chr>       <chr>                                           <int>
##  1 TZUYIC      Beatrice322 https://www.ptt.cc/bbs/Gossiping/M.1621822128.~     2
##  2 newmp4      Beatrice322 https://www.ptt.cc/bbs/Gossiping/M.1621822128.~     2
##  3 neoa01      Beatrice322 https://www.ptt.cc/bbs/Gossiping/M.1621822128.~     2
##  4 tupacshkur  Beatrice322 https://www.ptt.cc/bbs/Gossiping/M.1621822128.~     2
##  5 jimmyso     Beatrice322 https://www.ptt.cc/bbs/Gossiping/M.1621822128.~     2
##  6 phoenixhong Beatrice322 https://www.ptt.cc/bbs/Gossiping/M.1621822128.~     2
##  7 kroutony    Beatrice322 https://www.ptt.cc/bbs/Gossiping/M.1621822128.~     2
##  8 mice2       Beatrice322 https://www.ptt.cc/bbs/Gossiping/M.1621822128.~     2
##  9 s9234032    borondawon  https://www.ptt.cc/bbs/Gossiping/M.1621833645.~     3
## 10 amida959    borondawon  https://www.ptt.cc/bbs/Gossiping/M.1621833645.~     3
## # ... with 637 more rows
…
